{
	"version": 2,
	"rewrites": [
		{
			"source": "/next",
			"destination": "/api/next"
		},
    {
      "source": "/prev(ious)?",
      "destination": "/api/prev"
    },
    {
      "source": "/random",
      "destination": "/api/random"
    },
    {
      "source": "/",
      "destination": "/api/random"
    }
	]
}
